{
    "version": "https://jsonfeed.org/version/1",
    "title": "Aivivid",
    "description": "",
    "home_page_url": "https://aivivid.com",
    "feed_url": "https://aivivid.com/feed.json",
    "user_comment": "",
    "author": {
        "name": "webmaster"
    },
    "items": [
        {
            "id": "https://aivivid.com/contact.html",
            "url": "https://aivivid.com/contact.html",
            "title": "Contact",
            "summary": "eMail: info@aivivid.com Phone: +46-8-12144227 Office: Aivivid AB, Gustavslundsvägen 143 , 167 51 Bromma, Sweden. Twitter: https://twitter.com/aivivid Linkedin: https://linkedin.com/company/aivivid",
            "content_html": "<figure class=\"post__image post__image--center\"><img loading=\"lazy\"  src=\"https://aivivid.com/media/posts/14/Aivivid-logo-v2-final.png\" alt=\"\" width=\"250\" height=\"81\" sizes=\"(min-width: 1260px) calc(3.22vw + 703px), (min-width: 900px) calc(50.59vw + 116px), (min-width: 840px) calc(5vw + 684px), calc(85.58vw + 23px)\" srcset=\"https://aivivid.com/media/posts/14/responsive/Aivivid-logo-v2-final-xs.png 320w ,https://aivivid.com/media/posts/14/responsive/Aivivid-logo-v2-final-sm.png 480w ,https://aivivid.com/media/posts/14/responsive/Aivivid-logo-v2-final-md.png 768w\"></figure>\n<p>eMail: <a href=\"mailto:info@aivivid.com\">info@aivivid.com</a></p>\n<div><strong>Phone:</strong> +46-8-12144227</div>\n<div><strong>Office:</strong> Aivivid AB, Gustavslundsvägen 143 , 167 51 Bromma, Sweden.</div>\n<div><strong>Twitter:</strong> <a href=\"https://twitter.com/aivivid\" target=\"_blank\" rel=\"noopener noreferrer\">https://twitter.com/aivivid</a></div>\n<div>\n<div><strong>Linkedin:</strong> <a href=\"https://linkedin.com/company/aivivid\" target=\"_blank\" rel=\"noopener noreferrer\">https://linkedin.com/company/aivivid</a></div>\n</div>\n<div class=\"post__iframe\"><iframe width=\"600\" height=\"450\" style=\"border: 0;\" src=\"https://www.google.com/maps/embed?pb=!1m18!1m12!1m3!1d2035.2226201334797!2d17.983155316169285!3d59.32923701807196!2m3!1f0!2f0!3f0!3m2!1i1024!2i768!4f13.1!3m3!1m2!1s0x465f76237836cd87%3A0x5e5fcf6077d6ca47!2sGustavslundsv%C3%A4gen%20143%2C%20167%2051%20Bromma!5e0!3m2!1sen!2sse!4v1643899846548!5m2!1sen!2sse\" allowfullscreen=\"allowfullscreen\" loading=\"lazy\"></iframe></div>",
            "author": {
                "name": "webmaster"
            },
            "tags": [
            ],
            "date_published": "2022-02-07T14:54:34+01:00",
            "date_modified": "2024-05-31T14:19:52+02:00"
        },
        {
            "id": "https://aivivid.com/hr.html",
            "url": "https://aivivid.com/hr.html",
            "title": "Work with us",
            "summary": "Open Position Job Title: Network Monitoring, Visualization, and Remote Management Engineer (Part-Time, 50% Level of Involvement) Location: Stockholm / Uppsala, Sweden We are a dynamic and growing technology company focused on robust network management and innovative visualization solutions. Our team works to ensure seamless network&hellip;",
            "content_html": "<h3><figure class=\"post__image post__image--right\"><img loading=\"lazy\"  src=\"https://aivivid.com/media/posts/12/annie-spratt-internship.jpg\" alt=\"Photo by &lt;a href=&quot;https://unsplash.com/@anniespratt?utm_source=unsplash&amp;utm_medium=referral&amp;utm_content=creditCopyText&quot;&gt;Annie Spratt&lt;/a&gt; on &lt;a href=&quot;https://unsplash.com/?utm_source=unsplash&amp;utm_medium=referral&amp;utm_content=creditCopyText&quot;&gt;Unsplash&lt;/a&gt;   \" width=\"1920\" height=\"2879\" sizes=\"(min-width: 1260px) calc(3.22vw + 703px), (min-width: 900px) calc(50.59vw + 116px), (min-width: 840px) calc(5vw + 684px), calc(85.58vw + 23px)\" srcset=\"https://aivivid.com/media/posts/12/responsive/annie-spratt-internship-xs.jpg 320w ,https://aivivid.com/media/posts/12/responsive/annie-spratt-internship-sm.jpg 480w ,https://aivivid.com/media/posts/12/responsive/annie-spratt-internship-md.jpg 768w\"></figure></h3>\n<h2 class=\"western\">Open Position</h2>\n<h4 class=\"western\">Job Title: Network Monitoring, Visualization, and Remote Management Engineer<br><span style=\"font-size: large;\">(Part-Time, 50% Level of Involvement)</span></h4>\n<p>Location: Stockholm / Uppsala, Sweden</p>\n<h6><span style=\"font-family: Liberation Sans, sans-serif;\"><span style=\"font-size: large;\">About Us:</span></span></h6>\n<p>We are a dynamic and growing technology company focused on robust network management and innovative visualization solutions. Our team works to ensure seamless network operations, remote management capabilities, and advanced monitoring for our clients. We are currently looking for a part-time engineer to join us in developing and maintaining our bespoke infrastructure.</p>\n<h6><span style=\"font-family: Liberation Sans, sans-serif;\"><span style=\"font-size: large;\">Position Overview:</span></span></h6>\n<p>We seek a Network Monitoring, Visualization, and Remote Management Engineer to join our team on a part-time basis (50%). This role will be critical in building, monitoring, and visualizing network performance and health, utilizing automation to manage remote environments. The ideal candidate will bring hands-on experience with monitoring tools, automation skills, and an ability to create insightful visualizations. Candidates must be located in Stockholm or Uppsala. Job will be performed mostly remote, with the ability to be present at our office in Bromma, when needed.</p>\n<h6><span style=\"font-family: Liberation Sans, sans-serif;\"><span style=\"font-size: large;\">Key Responsibilities:</span></span></h6>\n<ul>\n<li>Network Monitoring &amp; Visualization:\n<ul>\n<li>Implement and manage Uptime Kuma for uptime monitoring, piping the data for storage and visualization to Prometheus.</li>\n<li>Develop and maintain monitoring systems using Prometheus and Grafana.</li>\n<li>Build dashboards and visualizations for network performance, uptime metrics and other mesurements.</li>\n</ul>\n</li>\n<li>Automation &amp; Remote Management:\n<ul>\n<li>Automate monitoring and management of virtual machines, ensuring seamless operation.</li>\n<li>Use Ansible, Puppet, or similar tools for configuration management, deployment, and automation of remote infrastructure.</li>\n</ul>\n</li>\n<li>Data Collection &amp; Analysis:\n<ul>\n<li>Utilize Python to develop scripts for data extraction, manipulation, and integration with monitoring systems.</li>\n</ul>\n</li>\n<li>Visualization &amp; Reporting:\n<ul>\n<li>Create advanced dashboards and data visualizations using Google Looker Studio or similar platforms to provide insightful reporting on network status and performance.</li>\n</ul>\n</li>\n<li>Manage and analyze data from RIPE Atlas (experience with RIPE Atlas is a plus).</li>\n</ul>\n<h6><span style=\"font-family: Liberation Sans, sans-serif;\"><span style=\"font-size: large;\">Qualifications:</span></span></h6>\n<ul>\n<li>Strong experience with Prometheus and Grafana for network and system monitoring.</li>\n<li>Experience using Uptime Kuma or similar uptime monitoring tools.</li>\n<li>Proficient in Python for scripting and automation.</li>\n<li>Hands-on experience with automation of remote Containers / VMs and remote management tools like Ansible and Puppet.</li>\n<li>RIPE Atlas experience is a plus.</li>\n<li>Familiarity with Google Looker Studio or other data visualization tools is an advantage.</li>\n<li>Located in or able to work from Stockholm or Uppsala, with the ability to be present at our office in Bromma, when needed.</li>\n</ul>\n<h6><span style=\"font-family: Liberation Sans, sans-serif;\"><span style=\"font-size: large;\">Additional Requirements:</span></span></h6>\n<ul>\n<li>Demonstrated ability to work independently, with strong problemsolving skills.</li>\n<li>Comfortable working in a technically demanding environment.</li>\n<li>Excellent communication skills, with an ability to translate technical data into meaningful insights for stakeholders.</li>\n</ul>\n<h6><span style=\"font-family: Liberation Sans, sans-serif;\"><span style=\"font-size: large;\">Benefits:</span></span></h6>\n<ul>\n<li>Flexible work schedule (50% involvement).</li>\n<li>Company's own hardware will be provided.</li>\n<li>Opportunity to work on innovative projects in a supportive team.</li>\n<li>Competitive compensation package based on experience.</li>\n</ul>\n<p> </p>\n<p>If you’re passionate about network monitoring, automation, and visualization, and are ready to bring your expertise to our team, we’d love to hear from you. Apply now and send your CV to hr[at]aivivid.com</p>",
            "image": "https://aivivid.com/media/posts/12/peter-pryharski-internship.jpg",
            "author": {
                "name": "webmaster"
            },
            "tags": [
            ],
            "date_published": "2022-02-05T21:02:58+01:00",
            "date_modified": "2024-11-11T22:25:28+01:00"
        },
        {
            "id": "https://aivivid.com/information-security-training.html",
            "url": "https://aivivid.com/information-security-training.html",
            "title": "Information security training",
            "summary": "Security is a behavioral know-how that needs to be thought. Learning from many years of our experience in our field of work, you can spend a fortune on your IT infrastructure and buy the best tech there is for security, but all of that will&hellip;",
            "content_html": "<h3 class=\"msg--highlight\"><strong>Security is a behavioral know-how that needs to be thought. </strong></h3>\n<p>Learning from many years of our experience in our field of work, you can spend a fortune on your IT infrastructure and buy the best tech there is for security, but all of that will go out the window when an untrained colleague opens a malicious attachment, clicks on a bad link,  or gets a convincing phishing attack.</p>\n<figure class=\"post__image post__image--wide\"><img loading=\"lazy\"  src=\"https://aivivid.com/media/posts/11/fran-innocenti-training-2.jpg\" alt=\"fran-innocenti\" width=\"1000\" height=\"750\" sizes=\"(min-width: 1260px) calc(3.22vw + 703px), (min-width: 900px) calc(50.59vw + 116px), (min-width: 840px) calc(5vw + 684px), calc(85.58vw + 23px)\" srcset=\"https://aivivid.com/media/posts/11/responsive/fran-innocenti-training-2-xs.jpg 320w ,https://aivivid.com/media/posts/11/responsive/fran-innocenti-training-2-sm.jpg 480w ,https://aivivid.com/media/posts/11/responsive/fran-innocenti-training-2-md.jpg 768w\"></figure>\n<p>This, makes proper information security training for staff a necessity. Businesses had switched more and more to remote work and rightly so.</p>\n<h3 class=\"msg--highlight\"><strong>On premise or remote:</strong></h3>\n<p>We can do our training at your offices or location of your choosing, or we can respect the new way of life and do it remotely. Our team have extensive experience in delivering both in person presentations or remote, or you can even request for a custom training to be recorded and your team across all timezones can use the video when they like. </p>\n<p>Nevertheless, we recommend a live session, since interaction with the instructor and Q&amp;A are crucial to the learning process.</p>",
            "author": {
                "name": "webmaster"
            },
            "tags": [
            ],
            "date_published": "2022-02-03T15:12:42+01:00",
            "date_modified": "2022-02-06T22:27:19+01:00"
        },
        {
            "id": "https://aivivid.com/penetration-tests-for-online-services.html",
            "url": "https://aivivid.com/penetration-tests-for-online-services.html",
            "title": "Penetration tests for online services",
            "summary": "Full penetration test of all your online presence or just one specific site: Aivivid offers classic black-box penetration tests (zero-knowledge) for one of your services, or for your entire online footprint. We will analyze the deployed structure, all public facing interfaces. As if we were&hellip;",
            "content_html": "<h3 class=\"align-left\">Full penetration test of all your online presence or just one specific site:</h3>\n<p class=\"align-left\">Aivivid offers classic black-box penetration tests (zero-knowledge) for one of your services, or for your entire online footprint. We will analyze the deployed structure, all public facing interfaces. As if we were an attacker, we would map out the site, identify potential vulnerabilities, and suggest improvements.</p>\n<figure class=\"post__image post__image--wide\"><img loading=\"lazy\"  src=\"https://aivivid.com/media/posts/10/target.png\" alt=\"Manual scan screenshot\" width=\"500\" height=\"287\" sizes=\"(min-width: 1260px) calc(3.22vw + 703px), (min-width: 900px) calc(50.59vw + 116px), (min-width: 840px) calc(5vw + 684px), calc(85.58vw + 23px)\" srcset=\"https://aivivid.com/media/posts/10/responsive/target-xs.png 320w ,https://aivivid.com/media/posts/10/responsive/target-sm.png 480w ,https://aivivid.com/media/posts/10/responsive/target-md.png 768w\"></figure>\n<h3 class=\"align-left\">Security advice / consulting:</h3>\n<p class=\"align-left\">You may want to consult with us first before deploying the guns for penetration testing. Specially if you do not have an extensive background in security, or simply need a fresh pair of eyes to look at things for you. You can learn more about our <a href=\"https://aivivid.com/security-consulting.html\">consulting service</a>.</p>",
            "author": {
                "name": "webmaster"
            },
            "tags": [
            ],
            "date_published": "2022-02-03T15:12:18+01:00",
            "date_modified": "2022-02-06T21:18:09+01:00"
        },
        {
            "id": "https://aivivid.com/security-consulting.html",
            "url": "https://aivivid.com/security-consulting.html",
            "title": "Security consulting",
            "summary": "Lets talk about your business: You are operating an organization with a few hundred people. Maybe a few tousonds. Or maybe you just have a law firm with 4 lawyers. Whatever your scale of work may be, any industry you work in, or whatever the&hellip;",
            "content_html": "<h3 class=\"align-left\">Lets talk about your business:</h3>\n<p class=\"align-left\">You are operating an organization with a few hundred people. Maybe a few tousonds. Or maybe you just have a law firm with 4 lawyers. Whatever your scale of work may be, any industry you work in, or whatever the threat model, we can help with your digital security needs.</p>\n<h3><figure class=\"post__image post__image--wide\"><img loading=\"lazy\"  src=\"https://aivivid.com/media/posts/9/chris-yang-security-consulting.jpg\" alt=\"chris yang source:unsplash.com\" width=\"1920\" height=\"1280\" sizes=\"(min-width: 1260px) calc(3.22vw + 703px), (min-width: 900px) calc(50.59vw + 116px), (min-width: 840px) calc(5vw + 684px), calc(85.58vw + 23px)\" srcset=\"https://aivivid.com/media/posts/9/responsive/chris-yang-security-consulting-xs.jpg 320w ,https://aivivid.com/media/posts/9/responsive/chris-yang-security-consulting-sm.jpg 480w ,https://aivivid.com/media/posts/9/responsive/chris-yang-security-consulting-md.jpg 768w\"></figure></h3>\n<h3 class=\"align-left\">We have extensive experience in providing security consulting:</h3>\n<p class=\"align-left\"><br>Over the past decade, Aivivid has provided security consulting to companies and organizations in the following sectors:</p>\n<table style=\"border-collapse: collapse; width: 100%;\" border=\"1\">\n<tbody>\n<tr>\n<td style=\"width: 25%;\">Academia</td>\n<td style=\"width: 25%;\">Automotive industry</td>\n<td style=\"width: 25%;\">Entertainment industry</td>\n<td style=\"width: 25%;\">Financial sector, payment processors</td>\n</tr>\n<tr>\n<td style=\"width: 25%;\">Gaming industry</td>\n<td style=\"width: 25%;\">Health care industry</td>\n<td style=\"width: 25%;\">IT industry</td>\n<td style=\"width: 25%;\">Law firms / BAR associations</td>\n</tr>\n<tr>\n<td style=\"width: 25%;\">News industry</td>\n<td style=\"width: 25%;\">Non Government Organizations</td>\n<td style=\"width: 25%;\">Pharmaceutical industry</td>\n<td style=\"width: 25%;\">Small - Medium size businesses</td>\n</tr>\n<tr>\n<td style=\"width: 25%;\">Telecommunication industry</td>\n<td style=\"width: 25%;\">Transportation industry</td>\n<td style=\"width: 25%;\"> </td>\n<td style=\"width: 25%;\"> </td>\n</tr>\n</tbody>\n</table>\n<h3 class=\"align-left\">Full spectrum of security related services:</h3>\n<p class=\"align-left\">‌Beside our consulting work, we provide a full spectrum of security services for your business. <a href=\"https://aivivid.com/cyber-security.html\">Read more</a>.</p>",
            "author": {
                "name": "webmaster"
            },
            "tags": [
            ],
            "date_published": "2022-02-03T15:11:46+01:00",
            "date_modified": "2022-02-05T21:58:20+01:00"
        },
        {
            "id": "https://aivivid.com/infrastructure-consulting.html",
            "url": "https://aivivid.com/infrastructure-consulting.html",
            "title": "Infrastructure consulting",
            "summary": "Consulting, under the hood: Want to design and deploy something completely new or need somebody to take a look at your current network / deployment? Or maybe your IT department / external contractor just need a hand? contact us.",
            "content_html": "<h3 class=\"align-left\">Consulting, under the hood:</h3>\n<p class=\"align-left\">Want to design and deploy something completely new or need somebody to take a look at your current network / deployment?</p>\n<p>Or maybe your IT department / external contractor just need a hand?<a href=\"https://aivivid.com/contact.html\"> contact us</a>.</p>\n<figure class=\"post__image post__image--wide\"><img loading=\"lazy\"  src=\"https://aivivid.com/media/posts/8/thomas-jensen-infra-consulting.jpg\" alt=\"thomas jensen srouce: unsplash.com\" width=\"1920\" height=\"1277\" sizes=\"(min-width: 1260px) calc(3.22vw + 703px), (min-width: 900px) calc(50.59vw + 116px), (min-width: 840px) calc(5vw + 684px), calc(85.58vw + 23px)\" srcset=\"https://aivivid.com/media/posts/8/responsive/thomas-jensen-infra-consulting-xs.jpg 320w ,https://aivivid.com/media/posts/8/responsive/thomas-jensen-infra-consulting-sm.jpg 480w ,https://aivivid.com/media/posts/8/responsive/thomas-jensen-infra-consulting-md.jpg 768w\"></figure>",
            "author": {
                "name": "webmaster"
            },
            "tags": [
            ],
            "date_published": "2022-02-03T15:11:19+01:00",
            "date_modified": "2022-02-07T14:56:22+01:00"
        },
        {
            "id": "https://aivivid.com/remote-work-consulting.html",
            "url": "https://aivivid.com/remote-work-consulting.html",
            "title": "Remote work consulting",
            "summary": "Covid 19 and permanent change to \"office\" and workforce on a global scale: After almost two and half years of quarantines and shutdowns, remote work is now clearly a part of our future. Office space and business travel demand is collapsing and is not coming&hellip;",
            "content_html": "<h3 class=\"align-left\">Covid 19 and permanent change to \"office\" and workforce on a global scale:</h3>\n<p class=\"align-left\">After almost two and half years of quarantines and shutdowns, remote work is now clearly a part of our future.<br>Office space and business travel demand is collapsing and is not coming back. People are now used to being on remote video calls and collaborating from far, in an efficient manner.<br>Even with lifted limitations, large companies are going to a hybrid model. So it’s clear this new reality is with us to stay.</p>\n<figure class=\"post__image post__image--wide\"><img loading=\"lazy\"  src=\"https://aivivid.com/media/posts/7/domenico-loia-remote-work.jpg\" alt=\"domenico loia source: unsplash.com\" width=\"1920\" height=\"1280\" sizes=\"(min-width: 1260px) calc(3.22vw + 703px), (min-width: 900px) calc(50.59vw + 116px), (min-width: 840px) calc(5vw + 684px), calc(85.58vw + 23px)\" srcset=\"https://aivivid.com/media/posts/7/responsive/domenico-loia-remote-work-xs.jpg 320w ,https://aivivid.com/media/posts/7/responsive/domenico-loia-remote-work-sm.jpg 480w ,https://aivivid.com/media/posts/7/responsive/domenico-loia-remote-work-md.jpg 768w\"></figure>\n<h3 class=\"align-left\">Optimize your infrastructure and network for remote work:</h3>\n<p class=\"align-left\">We will take a look at your current network and platforms, and then we will make the necessary recommendations to adjust your existing deployment to provide the best possible experience to your colleagues with very reasonable setup and running costs:</p>\n<ul>\n<li>A low-latency, high quality connectivity between all network nodes / applications and users, no matter where they are physically based</li>\n<li>Using the best collaboration tools with the proven UX, that needs minimal or no training for on-boarding new users</li>\n<li>Built in security by design</li>\n<li>Fully encrypted communications at all levels, inside and outside of the organization</li>\n<li>Integrating all online platforms and services as much as possible, using modern technologies like \"Single Sign On\" or \"Zero Trust Security\"</li>\n<li>Automatic protections in place for your networks and endpoints</li>\n<li>24/7 monitoring of all platforms, endpoints and networks, for any intrusion to be detected and responded to as fast as possible</li>\n<li>And other bits and pieces depending on your organizations specific needs and threat model</li>\n</ul>",
            "author": {
                "name": "webmaster"
            },
            "tags": [
            ],
            "date_published": "2022-02-03T15:10:46+01:00",
            "date_modified": "2022-02-06T22:15:50+01:00"
        },
        {
            "id": "https://aivivid.com/cyber-security.html",
            "url": "https://aivivid.com/cyber-security.html",
            "title": "Cyber Security",
            "summary": "Organized crime. Business competitors. Government linked actors. Ransomware gangs. They all want your data. We are more and more dependent on the Internet for our daily lives and our businesses, and companies and organizations are under much more online threats than before. Fully automatic, painless&hellip;",
            "content_html": "<h3 class=\"align-left\">Organized crime.<br>Business competitors. <br>Government linked actors. <br>Ransomware gangs. <br>They all want your data.</h3>\n<p class=\"align-left\">We are more and more dependent on the Internet for our daily lives and our businesses, and companies and organizations are under much more online threats than before.</p>\n<p> </p>\n<h3 class=\"align-left\" style=\"margin-top: 0px; font-family: -apple-system, BlinkMacSystemFont, 'Segoe UI', Roboto, Oxygen, Ubuntu, Cantarell, 'Fira Sans', 'Droid Sans', 'Helvetica Neue', sans-serif; font-weight: var(--font-weight-bold);\"><figure class=\"post__image post__image--wide\"><img loading=\"lazy\"  style=\"max-width: calc(100% + 10.0571rem); width: 1920px; outline: 3px solid rgba(var(--primary-color-rgb), 0.55)  !important;\" src=\"https://aivivid.com/media/posts/6/josh-sorenson-cyber-security.jpg\" alt=\"josh sorenson source: unsplash.com\" width=\"1920\" height=\"1280\" sizes=\"(min-width: 1260px) calc(3.22vw + 703px), (min-width: 900px) calc(50.59vw + 116px), (min-width: 840px) calc(5vw + 684px), calc(85.58vw + 23px)\" srcset=\"https://aivivid.com/media/posts/6/responsive/josh-sorenson-cyber-security-xs.jpg 320w ,https://aivivid.com/media/posts/6/responsive/josh-sorenson-cyber-security-sm.jpg 480w ,https://aivivid.com/media/posts/6/responsive/josh-sorenson-cyber-security-md.jpg 768w\"></figure></h3>\n<p> </p>\n<h3 class=\"align-left\">Secure and encrypted communication:</h3>\n<ul>\n<li class=\"align-left\">\n<p>Fully automatic, painless PGP encrypted email platform:<br>Encrypt your emails on storage and in transit. State of the art anti-phishing and anti-spam filters. Ability to send password protected SSL/TLS encrypted emails to anybody who doesn't use encryption. Set an expiry date for these emails.</p>\n</li>\n<li class=\"align-left\">\n<p>Cloud or Self hosted, encrypted messaging platform for organizations:<br>Mobile and desktop encrypted instant messaging platforms for collaboration and internal communications.</p>\n</li>\n</ul>\n<h3 class=\"align-left\">Secure infrastructure:</h3>\n<ul>\n<li class=\"align-left\">Secure Hosting of your web applications</li>\n<li>Encrypted cloud storage and file sharing</li>\n<li>Automated server side and endpoint backup</li>\n<li>Fully end to end encrypted collaboration / productivity suite <br>(Word processor, Spread sheet, task management, whiteboard, etc.)</li>\n</ul>\n<h3 class=\"align-left\">Secure network:</h3>\n<ul>\n<li>Best in class, BSD based Firewall with very long hardware life cycle (x86 platform)</li>\n<li>Very affordable, easy to install and remote managed in all points of your network, including cloud, branch offices, remote work hubs,etc.</li>\n<li>Fully automatic \"Intrusion Detection System\" and \"Intrusion Prevention System\" (IDS/IPS)</li>\n<li>Full traffic logs for <span style=\"color: var(--text-editor-body-color); font-family: var(--font-base); font-size: inherit; font-weight: var(--font-weight-normal);\"><span style=\"color: var(--text-editor-body-color); font-family: var(--font-base); font-size: inherit; font-weight: var(--font-weight-normal);\">forensic analysis </span></span><span style=\"color: var(--text-editor-body-color); font-family: var(--font-base); font-size: inherit; font-weight: var(--font-weight-normal);\">(netflow)</span></li>\n<li>DNS security</li>\n<li>Multiple client to site and site to site VPN protocols</li>\n</ul>\n<h3 class=\"align-left\">Secure endpoint protection and automatic updates:</h3>\n<ul>\n<li>One of the leading Anti-Malware software on the market</li>\n<li>Desktop (Windows-Mac-Linux) and Mobile (Android)</li>\n<li>AI assisted, automatic active scanning on the device for malware</li>\n<li>Central command panel for the network administrator</li>\n<li>Ability to monitor OS / software update situation and force remote clients to update</li>\n<li>See all active devices and visualize their situation on the admin panel for reporting</li>\n<li>A browser \"secure surf plugin\" can be used to avoid dangerous, phishing, and other problematic websites.</li>\n</ul>\n<h3 class=\"align-left\">\"Zero trust security\" for your web apps:</h3>\n<ul>\n<li class=\"align-left\">\n<p>Uniting network security services on a single platform built on a global platform, witting within milliseconds of the world's Internet connected population</p>\n</li>\n<li>Using a global unicast network to route traffic in a very efficient way to users</li>\n<li>Admins built consistent access policies for self hosted and SaaS applications</li>\n<li>Verifying identity and contacts of every login</li>\n<li>Then access is limited based on various signals and policies per application</li>\n<li>Admins build gateway policies that filter, isolate and inspect all Internet requests and user action in a single task</li>\n<li>\"Zero trust browsing service\" keeps untrusted web nodes away from customers' devices and networks.</li>\n<li>Reduces complexity, restores lost visibility and reduces attack surface</li>\n</ul>\n<h3 class=\"align-left\">Penetration tests for online services:</h3>\n<p class=\"align-left\">We provide blakbox pentesting of your specific web app or full online presence (website, connected web apps, etc) and will come back with our findings and recommendations for you to implement. Aivivid also can help your IT department / contractor to implement those recommendations. <a href=\"https://aivivid.com/penetration-tests-for-online-services.html\">Read more</a>.</p>\n<h3 class=\"align-left\">Security consulting:</h3>\n<p class=\"align-left\">You can hire our team for your consulting needs. <a href=\"https://aivivid.com/security-consulting.html\">Read more</a>.</p>\n<h3 class=\"align-left\">Information security training for your staff:</h3>\n<p>The most advanced technology in the world doesn't mean anything if your staff click on a wrong link. Humans have always been the weak link. Training your staff with our award winning curriculum and instructors, before it's too late. <a href=\"https://aivivid.com/information-security-training.html\">Read more</a>.</p>",
            "author": {
                "name": "webmaster"
            },
            "tags": [
            ],
            "date_published": "2022-02-03T15:09:11+01:00",
            "date_modified": "2022-02-07T12:05:19+01:00"
        },
        {
            "id": "https://aivivid.com/it-infrastructure.html",
            "url": "https://aivivid.com/it-infrastructure.html",
            "title": "IT Infrastructure",
            "summary": "Cloud solutions: Aivivid has been a cloud services provider for more than a decade. We provide managed and unmanaged cloud solutions worldwide: We will work with you to assess your company's needs, and then help you deploy, secure, monitor, manage and maintain your cloud infrastructure.",
            "content_html": "<h3>Cloud solutions:</h3>\n<p>Aivivid has been a cloud services provider for more than a decade. We provide managed and unmanaged cloud solutions worldwide:</p>\n<ul>\n<li>Our own operated point of presence in (PoP) Stockholm, Sweden</li>\n<li>Having access to 22 locations provided by our cloud partner</li>\n</ul>\n<p>We will work with you to assess your company's needs, and then help you deploy, secure, monitor, manage and maintain your cloud infrastructure.</p>\n<p> </p>\n<figure class=\"post__image post__image--wide\"><img loading=\"lazy\"  src=\"https://aivivid.com/media/posts/5/Infra-locations.png\" alt=\"\" width=\"1344\" height=\"550\" sizes=\"(min-width: 1260px) calc(3.22vw + 703px), (min-width: 900px) calc(50.59vw + 116px), (min-width: 840px) calc(5vw + 684px), calc(85.58vw + 23px)\" srcset=\"https://aivivid.com/media/posts/5/responsive/Infra-locations-xs.png 320w ,https://aivivid.com/media/posts/5/responsive/Infra-locations-sm.png 480w ,https://aivivid.com/media/posts/5/responsive/Infra-locations-md.png 768w\"></figure>\n<h3>Tailor-made services:</h3>\n<p>At our PoP in Stockholm, we can provide tailor-made IT infrastructure services.  For more information, please <a href=\"https://aivivid.com/contact.html\">contact us</a>.</p>\n<div class=\"gallery-wrapper\"><div class=\"gallery\"  data-is-empty=\"false\" data-columns=\"2\">\n<figure class=\"gallery__item\"><a href=\"https://aivivid.com/media/posts/5/gallery/InterXion_Colo.jpg\" data-size=\"2048x1360\"><img loading=\"lazy\" src=\"https://aivivid.com/media/posts/5/gallery/InterXion_Colo-thumbnail.jpg\" alt=\"InterXion Datacenter - Stockholm - Sweden\" width=\"768\" height=\"510\"></a>\n<figcaption>Aivivid PoP at InterXion Stockholm</figcaption>\n</figure>\n<figure class=\"gallery__item\"><a href=\"https://aivivid.com/media/posts/5/gallery/InterXion_Colo_2.jpg\" data-size=\"2048x1360\"><img loading=\"lazy\" src=\"https://aivivid.com/media/posts/5/gallery/InterXion_Colo_2-thumbnail.jpg\" alt=\"\" width=\"768\" height=\"510\"></a>\n<figcaption>Aivivid PoP at InterXion Stockholm</figcaption>\n</figure>\n<figure class=\"gallery__item\"><a href=\"https://aivivid.com/media/posts/5/gallery/InterXion_Colo_airlock.jpg\" data-size=\"2048x1359\"><img loading=\"lazy\" src=\"https://aivivid.com/media/posts/5/gallery/InterXion_Colo_airlock-thumbnail.jpg\" alt=\"\" width=\"768\" height=\"510\"></a>\n<figcaption>Airlock at InterXion Stockholm</figcaption>\n</figure>\n<figure class=\"gallery__item\"><a href=\"https://aivivid.com/media/posts/5/gallery/InterXion-chart.jpg\" data-size=\"4951x2862\"><img loading=\"lazy\" src=\"https://aivivid.com/media/posts/5/gallery/InterXion-chart-thumbnail.jpg\" alt=\"InterXion Datacenter - Stockholm - Sweden\" width=\"768\" height=\"444\"></a>\n<figcaption>Aivivid PoP at InterXion Stockholm</figcaption>\n</figure>\n</div></div>",
            "author": {
                "name": "webmaster"
            },
            "tags": [
            ],
            "date_published": "2022-02-03T15:08:44+01:00",
            "date_modified": "2022-02-08T10:14:47+01:00"
        },
        {
            "id": "https://aivivid.com/technology-partners.html",
            "url": "https://aivivid.com/technology-partners.html",
            "title": "Technology partners",
            "summary": "These are a few of the technologies we use to run, manage and orchestrate our customers' networks, infrastructure and endpoints. In some cases like F-Secure, we have a re-seller partnership. We use Cloudflare for our customers DNS / CDN / Loadbalancing / WAF / DDoS&hellip;",
            "content_html": "<p class=\"align-center\">These are a few of the technologies we use to run, manage and orchestrate our customers' networks, infrastructure and endpoints. In some cases like F-Secure, we have a re-seller partnership.</p>\n<figure class=\"post__image post__image--center\"><img loading=\"lazy\"  src=\"https://aivivid.com/media/posts/3/cf-logo-v.svg\" alt=\"\" width=\"500\" height=\"225\"></figure>\n<p class=\"align-center\">We use <strong>Cloudflare</strong> for our customers DNS / CDN / Loadbalancing / WAF / DDoS mitigation / Zero trust security and finally serverless hosting. They provide an amazing portfolio of services which is growing by the day and keep their customers at the bleeding edge of online security, infrastructure protection and management.</p>\n<figure class=\"post__image post__image--center\"><img loading=\"lazy\"  src=\"https://aivivid.com/media/posts/3/logo__on-white-2.svg\" alt=\"Vultr\" width=\"500\" height=\"120\"></figure>\n<p class=\"align-center\"><strong>Vultr</strong> is a cloud service provider with many PoPs (points of presence) across the globe, from North America, Europe, Asia and Australia. They provide scalable cloud services solutions, cloud backup, loadbalancers, firewalls, object storage and block storage.</p>\n<figure class=\"post__image post__image--center\"><img loading=\"lazy\"  src=\"https://aivivid.com/media/posts/3/Protonmail_logo.svg\" alt=\"\" width=\"500\" height=\"80\"></figure>\n<p class=\"align-center\"><strong>ProtonMail</strong> is one of the leading email security and encrypted email platforms in the world. Based in Switzerland, they provide auto-encrypted email, calendar, file sharing and VPN services.</p>\n<figure class=\"post__image post__image--center\"><img loading=\"lazy\"  style=\"font-size: 18.4px; outline: 3px solid rgba(var(--primary-color-rgb), 0.55)  !important;\" src=\"https://aivivid.com/media/posts/3/F-Secure_horizontal_logo_RGB_blue.png\" alt=\"\" width=\"500\" height=\"138\" sizes=\"(min-width: 1260px) calc(3.22vw + 703px), (min-width: 900px) calc(50.59vw + 116px), (min-width: 840px) calc(5vw + 684px), calc(85.58vw + 23px)\" srcset=\"https://aivivid.com/media/posts/3/responsive/F-Secure_horizontal_logo_RGB_blue-xs.png 320w ,https://aivivid.com/media/posts/3/responsive/F-Secure_horizontal_logo_RGB_blue-sm.png 480w ,https://aivivid.com/media/posts/3/responsive/F-Secure_horizontal_logo_RGB_blue-md.png 768w\"></figure>\n<p class=\"align-center\"><strong>F-Secure</strong> is a leading digital security company from Finland, they provide Endpoint security software, collaboration protection and vulnerability management.</p>\n<div class=\"align-center\"> </div>\n<figure class=\"post__image post__image--center\"><img loading=\"lazy\"  src=\"https://aivivid.com/media/posts/3/OPNsense-logo.svg\" alt=\"\" width=\"500\" height=\"100\"></figure>\n<p class=\"align-center\"><strong>OPNsense</strong> is an open source, easy-to-use and easy-to-build FreeBSD based firewall and routing platform. A Stateful inspection firewall, Intrusion detection and prevention, Network Flow Monitoring, wide range of Virtual Private Network options (site to site &amp; road warrior, IPsec, OpenVPN, etc.) High Availability &amp; Hardware Failover and more.</p>\n<figure class=\"post__image post__image--center\"><img loading=\"lazy\"  src=\"https://aivivid.com/media/posts/3/Proxmox-logo-860.png\" alt=\"\" width=\"500\" height=\"105\" sizes=\"(min-width: 1260px) calc(3.22vw + 703px), (min-width: 900px) calc(50.59vw + 116px), (min-width: 840px) calc(5vw + 684px), calc(85.58vw + 23px)\" srcset=\"https://aivivid.com/media/posts/3/responsive/Proxmox-logo-860-xs.png 320w ,https://aivivid.com/media/posts/3/responsive/Proxmox-logo-860-sm.png 480w ,https://aivivid.com/media/posts/3/responsive/Proxmox-logo-860-md.png 768w\"></figure>\n<p class=\"align-center\"><strong>Proxmox VE </strong>is a complete, open-source server management platform for enterprise visualization. It tightly integrates the KVM hypervisor and Linux Containers (LXC), software-defined storage and networking functionality, on a single platform</p>",
            "author": {
                "name": "webmaster"
            },
            "tags": [
            ],
            "date_published": "2022-02-03T12:25:23+01:00",
            "date_modified": "2022-02-07T12:03:29+01:00"
        }
    ]
}
